<svg width="284" height="282" viewBox="0 0 284 282" fill="none" xmlns="http://www.w3.org/2000/svg">
<path d="M263.047 151.342C242.065 206.591 207 249.011 158.764 277.576C110.585 249.011 75.5195 206.591 54.4804 151.342C38.3448 108.864 35.0378 70.0931 34.4677 51.6768C50.0332 50.1373 62.5198 38.0498 64.5724 22.6554H252.955C255.064 38.0498 267.551 50.1373 283.06 51.6768C282.489 70.0931 279.182 108.864 263.047 151.342Z" fill="#FDDD31"/>
<path d="M266.41 29.8394H265.042C253.011 29.8394 243.261 20.0896 243.261 8.05912C243.261 3.95393 239.954 0.646973 235.849 0.646973H137.382H38.9142C34.809 0.646973 31.5021 3.95393 31.5021 8.05912C31.5021 20.0896 21.7523 29.8394 9.7218 29.8394H8.41042C4.30523 29.8394 0.941256 33.2034 0.998273 37.3086C1.39739 71.0623 10.9762 210.81 137.382 281.339C263.844 210.81 273.366 71.0623 273.765 37.3086C273.822 33.2034 270.515 29.8394 266.41 29.8394ZM241.665 141.25C220.683 196.499 185.618 238.919 137.382 267.484C89.2028 238.919 54.1376 196.499 33.0986 141.25C16.9629 98.8294 13.6559 60.0011 13.0858 41.6418C28.5943 40.1024 41.0809 28.0149 43.1905 12.6204H231.573C233.683 28.0149 246.169 40.1024 261.678 41.6418C261.107 60.0011 257.801 98.8294 241.665 141.25Z" fill="black"/>
<path d="M115.83 80.7551C116.799 82.8077 118.852 83.9481 120.961 83.9481C121.817 83.9481 122.672 83.777 123.47 83.3779C126.321 82.0095 127.461 78.5885 126.093 75.7377C118.852 60.7994 102.26 51.1636 83.7865 51.1636C66.2825 51.1636 50.5459 59.716 42.7347 73.457C41.1952 76.1938 42.1075 79.6718 44.8443 81.2113C47.5811 82.7507 51.0591 81.8384 52.5985 79.1017C58.3572 69.0668 70.5587 62.5669 83.7865 62.5669C97.9266 62.5669 110.47 69.6939 115.83 80.7551Z" fill="black"/>
<path d="M74.094 79.7859C72.2124 79.7859 70.673 81.3253 70.673 83.2069C70.673 85.0884 72.2124 86.6279 74.094 86.6279H96.1023C97.9839 86.6279 99.5233 85.0884 99.5233 83.2069C99.5233 81.3253 97.9839 79.7859 96.1023 79.7859H74.094Z" fill="black"/>
<path d="M232.03 73.457C224.161 59.716 208.425 51.1636 190.978 51.1636C172.561 51.1636 155.97 60.7994 148.672 75.7377C147.303 78.5885 148.5 82.0095 151.294 83.3779C152.093 83.777 152.948 83.9481 153.803 83.9481C155.913 83.9481 157.965 82.7507 158.935 80.7551C164.294 69.6939 176.838 62.5669 190.978 62.5669C204.149 62.5669 216.407 69.0668 222.166 79.1017C223.705 81.8384 227.183 82.8077 229.92 81.2113C232.657 79.6718 233.626 76.1938 232.03 73.457Z" fill="black"/>
<path d="M200.727 86.6279C202.609 86.6279 204.148 85.0884 204.148 83.2069C204.148 81.3253 202.609 79.7859 200.727 79.7859H178.719C176.837 79.7859 175.298 81.3253 175.298 83.2069C175.298 85.0884 176.837 86.6279 178.719 86.6279H200.727Z" fill="black"/>
<path d="M134.018 188.174H125.238L137.382 230.766L149.527 188.174H137.382H134.018Z" fill="black"/>
<path d="M210.478 139.71C207.627 138.057 203.978 139.026 202.324 141.934L193.487 157.214H168.171L156.54 139.995H137.325H118.111L106.48 157.214H81.1642L72.3266 141.934C70.6732 139.083 67.0241 138.114 64.1733 139.71C61.3225 141.364 60.3532 145.013 61.9496 147.864L74.2082 169.131H112.808L124.44 151.912H137.268H150.097L161.728 169.131H200.329L212.587 147.864C214.355 145.013 213.385 141.364 210.478 139.71Z" fill="black"/>
<path d="M146.904 166.907H137.382H127.861C125.979 166.907 124.44 168.447 124.44 170.328C124.44 172.21 125.979 173.749 127.861 173.749H137.382H146.904C148.786 173.749 150.325 172.21 150.325 170.328C150.325 168.447 148.786 166.907 146.904 166.907Z" fill="black"/>
</svg>
