<svg width="33" height="28" viewBox="0 0 33 28" fill="none" xmlns="http://www.w3.org/2000/svg">
<path d="M18.8066 26.8011L30.8066 14.2011L18.8066 1.60107" stroke="#212529" stroke-width="2" stroke-linecap="round"/>
<path d="M1.80664 26.8011L13.8066 14.2011L1.80664 1.60107" stroke="#212529" stroke-width="2" stroke-linecap="round"/>
</svg>
