<svg width="89" height="100" viewBox="0 0 89 100" fill="none" xmlns="http://www.w3.org/2000/svg">
<path d="M22.6888 29.2422C22.7516 29.6612 22.8284 30.0941 22.9052 30.506C23.7989 35.0864 24.4623 37.3277 24.4623 37.3277C25.5655 41.0492 26.5709 44.5403 28.512 47.9966C29.8595 50.3915 31.9542 52.9819 33.6858 54.8252C33.6299 56.6336 33.3646 57.9881 32.9457 58.9307C32.4779 59.9851 31.8704 60.5716 30.9488 61.0324C23.0239 65.3823 14.0447 68.4615 7.75374 72.4973C5.49149 74.0334 2.87314 77.4198 2.80332 82.2096C1.99338 87.3555 1.26723 92.676 0.520126 97.8847C0.415392 98.5271 0.994919 99.1904 1.64427 99.1834H86.9953C87.6376 99.1694 88.1823 98.5201 88.0845 97.8847C87.3304 92.662 86.6113 87.4323 85.8362 82.2096C85.7804 77.4477 83.4902 73.796 80.7462 72.4275C72.8283 67.8541 64.9523 64.4886 57.7955 61.0324C56.6853 60.4529 55.8475 59.0564 55.2959 57.653C54.7373 56.2217 54.4789 54.7833 54.5278 54.1898C56.0779 52.4932 58.0678 50.0354 59.2967 47.9198C61.3076 44.4635 62.2572 41.1051 63.2626 37.3556C63.2626 37.3556 64.3728 31.1414 64.673 29.5704L62.5295 29.1934L62.1734 31.0786C61.6497 36.0918 60.4139 42.2153 57.4673 47.2774C53.9972 53.2402 48.5789 57.5553 43.6425 57.5553C38.8108 57.5553 33.6369 53.2262 30.2785 47.2425C27.4367 42.1873 26.1589 36.0988 25.2931 31.0786L24.9789 29.4098L22.6888 29.2422ZM52.8591 55.8446C52.9638 57.4156 53.2431 58.7353 53.7388 59.8454C54.2276 60.9486 54.9537 61.8563 55.8475 62.5126C51.3928 70.5701 37.3864 70.5701 32.9317 62.5126C33.8255 61.8563 34.5446 60.9556 35.0404 59.8454C35.4314 58.9727 35.6967 57.9533 35.8503 56.7942C38.1824 58.6585 40.7937 59.8105 43.6774 59.8105C47.0708 59.8035 50.1499 58.2675 52.8591 55.8446ZM30.6415 63.7695C32.443 73.8937 34.6494 87.0483 42.0854 96.9421C40.2282 96.9421 38.8108 96.9421 36.9605 96.9421L26.2916 85.6518L30.0131 81.9373C30.5857 81.3787 30.2645 80.2266 29.4895 80.045L21.6275 78.0831L25.0697 66.297C27.0317 65.4382 29.0356 64.5305 30.6415 63.7695ZM58.6124 63.9789C60.0508 64.3489 61.3215 65.0193 62.6133 65.5918L66.4744 78.0761L58.6473 80.0381C57.8723 80.2196 57.5511 81.3717 58.1237 81.9303L61.8452 85.6448L51.1763 96.9352C49.5285 96.9352 48.2438 96.9352 46.582 96.9352C54.0111 87.1181 56.7621 74.1101 58.6124 63.9789ZM55.9801 65.9409C54.081 75.8208 51.1205 87.6278 44.3268 96.2369C37.7495 87.8512 35.2359 76.4003 33.4484 66.6392C39.4462 72.3716 50.3804 72.1342 55.9801 65.9409ZM65.3852 66.8905C70.3566 69.1528 74.7763 71.9038 79.7756 74.4314C81.4863 75.2832 83.6368 78.2926 83.6368 82.3912C84.2862 87.2299 85.0123 92.0965 85.7105 96.9421C77.262 96.9421 65.476 96.9421 54.3044 96.9421L64.2331 86.385C64.6311 85.9591 64.6172 85.212 64.1982 84.807L61.1121 81.7208L68.1641 79.9683C68.7507 79.8216 69.1417 79.1443 68.9741 78.5648L65.3852 66.8905ZM22.3257 67.5539L19.1697 78.5648C19.0021 79.1443 19.3931 79.8216 19.9797 79.9683L27.0317 81.7208L23.9456 84.807C23.5266 85.212 23.5057 85.9591 23.9107 86.385L33.8394 96.9421C22.7586 96.9421 11.6289 96.9421 2.92202 96.9421C3.63421 92.0965 4.29054 87.2159 5.03066 82.3912C5.03066 78.3345 7.34876 75.4997 9.03149 74.3616C13.5909 71.7502 18.3947 69.3972 22.3257 67.5539Z" fill="black"/>
<path d="M21.7392 21.4849C21.4948 17.8471 21.6694 12.6872 25.0278 8.23256C28.8192 3.21232 34.7401 3.35897 36.2832 3.49163C38.5804 2.26275 52.4052 -4.31453 62.2851 9.9921C63.9818 12.4429 65.085 15.4662 65.4551 18.2311L62.9554 16.2412C62.5365 14.4817 61.5939 12.6733 60.5675 11.1791C50.925 -2.77842 37.6168 5.1185 37.0513 5.46063C36.8418 5.58631 36.5974 5.63519 36.353 5.60028C36.1087 5.56537 30.2436 4.80431 26.7036 9.4894C24.2179 12.785 23.5616 16.8626 22.8633 19.8161" fill="black"/>
<path d="M62.0474 40.6528L61.2305 38.7257C61.2724 38.7048 65.755 36.7637 67.2841 33.0631C67.8846 31.6178 67.9055 30.5006 67.3399 30.0817C66.9699 29.8024 66.4322 29.8722 66.3066 29.97C65.7061 30.6542 65.0428 30.8218 64.5959 30.8428C63.6044 30.8986 62.8853 30.2632 62.7526 30.1375L64.2328 28.4688C64.547 28.4758 64.5889 28.5316 64.7425 28.5735C65.5385 27.6658 67.2073 27.5192 68.3873 28.2523C69.1414 28.7201 70.7263 30.2004 69.2251 33.8521C67.3609 38.3696 62.2638 40.562 62.0474 40.6528Z" fill="black"/>
<path d="M21.62 29.5926C21.655 29.3412 21.6899 29.0829 21.7178 28.8315C22.7302 21.3256 24.0778 14.86 24.0987 14.7693L22.2554 14.1758C21.5572 16.8081 19.4067 27.0092 18.7015 37.5803C18.2756 43.9621 17.6681 57.0887 17.6611 57.2213C17.6471 57.5495 17.7868 57.8707 18.0451 58.0802C18.2337 58.2338 18.4711 58.3176 18.7084 58.3176C18.7922 58.3176 18.876 58.3106 18.9598 58.2896L24.399 56.9281C24.7341 56.8443 24.9995 56.6069 25.1251 56.2857L26.0468 53.8629L27.0592 55.8877C27.2826 56.3416 27.8063 56.565 28.2881 56.4254L33.9996 54.7706L33.4131 52.7597L28.5395 54.1701L26.8498 50.7907C26.6612 50.4206 26.2702 50.1832 25.8583 50.2112C25.4463 50.2321 25.0763 50.4974 24.9296 50.8815L23.3516 55.0289L19.8047 55.9157C19.9722 52.3408 20.4331 42.8449 20.7752 37.7199C20.8101 37.1823 20.852 36.6447 20.8939 36.0931C20.9428 35.5415 20.9916 34.9829 21.0475 34.4243C21.0475 34.4243 19.5184 32.8114 19.7837 30.9332C20.049 29.055 20.9637 29.1597 20.9637 29.1597L21.62 29.5926Z" fill="black"/>
<path d="M68.9806 59.0018C68.8829 59.0018 68.7851 58.9879 68.6874 58.9599L63.1504 57.3261L58.9541 56.2089L53.3613 54.7776L53.878 52.7457L59.4848 54.1771L63.723 55.3082L67.9054 56.5371C67.8216 52.8295 67.5842 42.8449 67.242 37.7129C67.1932 36.9519 67.1233 36.1768 67.0396 35.3948C67.0046 35.0597 66.9627 35.4158 66.9209 35.0737C66.8301 34.3405 68.3592 32.965 67.9822 30.7097C67.6051 28.4475 66.2715 30.0813 66.076 29.0619C66.0341 28.8315 66.0969 28.0565 66.0481 27.8261C64.6237 20.5715 62.9829 16.3193 62.948 16.2355L64.2955 14.1758C64.4631 14.6925 67.8704 21.57 69.3228 37.5803C69.9023 43.9621 70.021 57.7939 70.021 57.9335C70.028 58.2687 69.8743 58.5829 69.609 58.7854C69.4275 58.925 69.2041 59.0018 68.9806 59.0018Z" fill="black"/>
<path d="M25.1606 40.0312C24.979 39.9684 20.7129 38.3974 18.8347 33.8589C17.3265 30.2072 18.9184 28.727 19.6725 28.2592C20.8525 27.526 22.5213 27.6727 23.3103 28.5804C23.436 28.727 23.5686 28.8806 23.8758 28.6153L25.3002 30.1514C25.1676 30.277 24.4833 30.8915 23.4639 30.8566C23.017 30.8356 22.3537 30.668 21.7393 29.9698C21.6276 29.8791 21.0899 29.8092 20.7199 30.0885C20.1543 30.5075 20.1752 31.6176 20.7757 33.0699C22.2978 36.7566 25.8379 38.0553 25.8728 38.0692L25.1606 40.0312Z" fill="black"/>
<path d="M24.7064 30.5418L23.5264 28.8102C23.5473 28.7962 25.7816 27.6581 28.8678 24.3625C34.8725 17.9598 36.0805 15.4811 36.0944 15.4532C36.2201 15.1809 36.4645 14.9714 36.7577 14.8876C37.051 14.8038 37.3652 14.8457 37.6165 15.0133C37.6794 15.0552 44.7315 21.4788 52.4329 25.0607C59.1917 28.2027 64.2119 28.4681 64.2608 28.4751L64.0583 30.5627C63.8489 30.5418 58.7658 30.0321 51.609 26.9948C45.6252 24.4533 39.4738 18.6371 37.3931 17.3593C36.5413 18.672 34.5862 21.3252 30.3899 25.8009C27.1292 29.278 24.7971 30.479 24.7064 30.5418Z" fill="black"/>
<path d="M24.309 44.3885C22.5774 44.3885 21.167 42.9781 21.167 41.2465C21.167 39.5149 22.5774 38.1045 24.309 38.1045C26.0406 38.1045 27.451 39.5149 27.451 41.2465C27.451 42.9781 26.0476 44.3885 24.309 44.3885ZM24.309 40.1992C23.7295 40.1992 23.2617 40.667 23.2617 41.2465C23.2617 41.826 23.7295 42.2938 24.309 42.2938C24.8885 42.2938 25.3563 41.826 25.3563 41.2465C25.3563 40.667 24.8885 40.1992 24.309 40.1992Z" fill="black"/>
<path d="M64.1069 44.3885C62.3753 44.3885 60.9648 42.9781 60.9648 41.2465C60.9648 39.5149 62.3753 38.1045 64.1069 38.1045C65.8385 38.1045 67.2489 39.5149 67.2489 41.2465C67.2489 42.9781 65.8454 44.3885 64.1069 44.3885ZM64.1069 40.1992C63.5273 40.1992 63.0595 40.667 63.0595 41.2465C63.0595 41.826 63.5273 42.2938 64.1069 42.2938C64.6864 42.2938 65.1542 41.826 65.1542 41.2465C65.1542 40.667 64.6864 40.1992 64.1069 40.1992Z" fill="black"/>
</svg>
