<svg width="38" height="38" viewBox="0 0 38 38" fill="none" xmlns="http://www.w3.org/2000/svg">
<g clip-path="url(#clip0)">
<path d="M14.8063 0.668945C6.63672 0.668945 0 8.96419 0 19.1689C0 29.3737 6.63672 37.6689 14.8063 37.6689H23.1937C31.3546 37.6689 38 29.3737 38 19.1689C38 8.96419 31.3546 0.668945 23.1937 0.668945H14.8063ZM23.1937 35.7683C16.0605 35.7683 10.2599 28.3257 10.2599 19.1778C10.2599 10.03 16.0605 2.57845 23.1937 2.57845C30.3268 2.57845 36.1274 10.0211 36.1274 19.1689C36.1274 28.3168 30.3268 35.7683 23.1937 35.7683ZM16.5744 35.7683H14.8063C11.906 35.7683 9.12766 34.5249 6.78478 32.1802L6.17511 31.5674H12.2109L12.3154 31.7095C13.3431 33.0861 14.4492 34.2052 15.7034 35.1289L16.5744 35.7683ZM11.0264 29.6579H4.79899L4.69448 29.498C4.09351 28.5655 3.58836 27.5175 3.15288 26.3096L2.97868 25.83H9.38895L9.46734 26.0698C9.8854 27.3043 10.2948 28.2724 10.7477 29.1339L11.0264 29.6579ZM8.85767 23.9649H2.42127L2.3603 23.6807C2.13385 22.5528 1.97708 21.5136 1.9074 20.5189L1.88127 20.137H8.41348L8.42219 20.4745C8.45703 21.4959 8.60509 22.4728 8.78799 23.5475L8.85767 23.9649ZM8.41348 18.192H1.88127L1.9074 17.8101C2.00321 16.5045 2.14256 15.5276 2.3603 14.6394L2.42998 14.373H8.85767L8.7967 14.7815C8.63993 15.8118 8.47444 16.842 8.4309 17.8545L8.41348 18.192ZM9.39766 12.5079H2.97868L3.15288 12.0283C3.52739 10.9892 4.03255 9.95891 4.68577 8.84873L4.79028 8.67999H10.9741L10.7128 9.20399C10.1641 10.2698 9.76347 11.2645 9.47605 12.2592L9.39766 12.5079ZM12.2022 6.77048H6.20995L6.81962 6.15766C9.17121 3.81297 11.9409 2.56957 14.8412 2.56957H16.5744L15.6947 3.20903C14.4405 4.1327 13.3344 5.24288 12.3067 6.62838L12.2022 6.77048Z" fill="black"/>
<path d="M16.8356 22.6682C16.7398 22.6682 16.6963 22.7215 16.6963 22.8103V24.8086C16.6963 24.9063 16.7485 24.9507 16.8356 24.9507H19.013V28.6809C19.013 28.7431 19.0653 28.823 19.1524 28.823H21.234C21.3298 28.823 21.3733 28.7786 21.3733 28.6809V24.9507H26.1288C26.2246 24.9507 26.2681 24.8974 26.2681 24.8086V22.8103C26.2681 22.7481 26.2159 22.6682 26.1288 22.6682H21.3385V20.7676H24.8659C26.3727 20.7676 27.7749 20.1636 28.8201 19.0534C29.8565 17.9521 30.3965 16.5134 30.3442 14.9858C30.1962 11.9661 27.7314 9.59473 24.744 9.59473H19.1611C19.0653 9.59473 19.0218 9.63913 19.0218 9.73683V18.3607H16.8444C16.7485 18.3607 16.705 18.4051 16.705 18.5028V20.6166C16.705 20.7143 16.7573 20.7587 16.8444 20.7587H19.0218V22.6593H16.8356V22.6682ZM24.8659 18.3607H21.3385V12.0016H24.8659C26.6165 12.0016 27.9839 13.396 27.9839 15.1811C27.9839 16.9397 26.5817 18.3607 24.8659 18.3607Z" fill="black"/>
</g>
<defs>
<clipPath id="clip0">
<rect y="0.668945" width="38" height="37" fill="white"/>
</clipPath>
</defs>
</svg>
