<svg width="197" height="72" viewBox="0 0 197 72" fill="none" xmlns="http://www.w3.org/2000/svg">
<path d="M137.688 41.9328H5.19238V5.71777H190.95V41.9328H156.564V64.2471L137.688 41.9328Z" fill="#FFF200"/>
<path d="M23.1151 15.5215C27.9437 15.5215 30.2117 16.9116 30.2117 19.7649C30.2117 22.8376 26.7 23.7887 21.5055 23.7887C26.7 23.7887 30.797 24.7399 30.797 27.959C30.797 31.7634 27.7974 32.7145 23.554 32.7145H16.75V15.5215H23.1151ZM20.3349 18.5211V23.8619C26.1147 23.8619 26.5537 22.3987 26.5537 21.1549C26.5537 19.5454 25.3099 18.5943 22.8956 18.5943H20.3349V18.5211ZM20.3349 23.7887V29.7148H23.554C26.5537 29.7148 27.139 28.1784 27.139 26.7884C27.139 25.1057 26.1147 23.7887 20.3349 23.7887Z" fill="#010101"/>
<path d="M40.1609 15.5215V22.6182H47.3308V15.5215H51.062V32.7876H47.3308V25.8373H40.1609V32.7876H36.4297V15.5215H40.1609Z" fill="#010101"/>
<path d="M61.0857 15.5215V32.7876H57.3545V15.5215H61.0857ZM68.9872 15.5215L64.817 32.7876H61.0857L65.2559 15.5215H68.9872ZM72.7184 15.5215V32.7876H68.9872V15.5215H72.7184Z" fill="#010101"/>
<path d="M79.085 15.5215H82.5236V32.7876H79.085V15.5215ZM89.4007 32.7876L92.3272 15.5215H95.5463L92.6199 32.7876H85.7427L82.5967 15.5215H86.328L89.4007 32.7876ZM99.2776 32.7876H95.5463V15.5215H99.2776V32.7876Z" fill="#010101"/>
<path d="M117.201 32.7876L115.738 27.8126H108.714L107.251 32.7876H103.812L108.787 15.5215H112.226L109.665 24.5935H114.86L112.299 15.5215H116.03L120.932 32.7876H117.201Z" fill="#010101"/>
<path d="M129.128 15.5215V22.6182H136.298V15.5215H140.029V32.7876H136.298V25.8373H129.128V32.7876H125.396V15.5215H129.128Z" fill="#010101"/>
<path d="M150.124 15.5215V32.7876H146.393V15.5215H150.124ZM158.025 15.5215L153.855 32.7876H150.124L154.294 15.5215H158.025ZM161.683 15.5215V32.7876H157.952V15.5215H161.683Z" fill="#010101"/>
<path d="M179.463 15.5215V18.7406H171.781V22.4718H179.463V25.691H171.781V29.6417H179.463V32.7876H168.123V15.5215H179.463Z" fill="#010101"/>
<path d="M156.563 59.2471L137.687 41.9328H5.19163V5.71775H190.949V41.9328H156.563V59.2471ZM161.684 71.2209V59.2471V47.0541H190.949H196.07V41.9328V5.71775V0.596436H190.949H5.19163H0.0703125V5.71775V41.9328V47.0541H5.19163H135.346L161.684 71.2209Z" fill="#212529"/>
</svg>
