<svg width="23" height="23" viewBox="0 0 23 23" fill="none" xmlns="http://www.w3.org/2000/svg">
<circle cx="11.8789" cy="11.4448" r="11" fill="#FDDD31"/>
<path d="M6.87858 8.68586C7.30306 7.8369 7.86902 7.12944 8.57649 6.56347C9.56693 5.71452 10.8404 5.29004 12.2553 5.29004C15.6511 5.29004 18.481 7.97839 18.481 11.3742C18.481 14.77 15.6511 17.5999 12.2553 17.5999C9.56693 17.5999 7.30306 15.7605 6.4541 13.3551" stroke="#212529" stroke-width="1.5" stroke-miterlimit="10" fill="#FDDD31"/>
<path d="M5.27441 6.36035L6.68485 9.67314L10.2755 8.88251" fill="transparent" stroke="#212529" stroke-width="1.5" stroke-miterlimit="10"/>
</svg>
