<svg width="46" height="28" viewBox="0 0 46 28" fill="none" xmlns="http://www.w3.org/2000/svg">
    <path d="M14.3653 0.813021L2.04688 13.7473L14.3653 26.6816" fill="#ffffff" stroke="#FDDD31" stroke-width="2"/>
    <path d="M3.27888 13.7475L45.7773 13.7476" stroke="#FDDD31" fill="#ffffff" stroke-width="2"/>
</svg>
