<svg width="16" height="13" viewBox="0 0 16 13" fill="none" xmlns="http://www.w3.org/2000/svg">
<path d="M4.70637 7.54129L1.09785 6.40866C0.771969 6.32123 0.835556 5.70921 1.30848 5.55819L13.1634 0.991901C13.2619 0.954032 13.3569 0.917166 13.4486 0.88162C15.1174 0.234496 15.6579 0.0249101 15.2021 2.17222C14.7574 4.27545 14.3243 6.38033 13.891 8.48579C13.6505 9.65452 13.4099 10.8234 13.1673 11.9923C13.0044 12.5686 12.4719 12.7872 11.9632 12.4613L8.63261 9.95441C8.51168 10.0747 8.39115 10.1959 8.27045 10.3174C7.61355 10.9783 6.95159 11.6444 6.19191 12.1765C6.23165 11.6599 6.31585 10.982 6.40005 10.3041C6.48425 9.62626 6.56844 8.94839 6.60819 8.43175L6.61595 8.43599L6.60999 8.4315L12.1857 3.40023C13.2985 2.40272 12.917 2.35106 11.84 3.03064L4.70637 7.54129Z" fill="#2FA6D9"/>
</svg>
